{
    "id": 2222,
    "name":"Admin",
    "contact":"admin@tut.by",
    "clients": [
        {
            "id":5112,
            "name": "Ivanov",
            "budget": 100000,
            "status":true
        },
        {
            "id":12124,
            "name": "Petrov",
            "budget": 10,
            "status":false
        },
        {
            "id":125654,
            "name": "Sidarov",
            "budget": 2000,
            "status":true
        },
        {
            "id":75621,
            "name": "Ivanov",
            "budget": 10,
            "status":true
        }
    ],
    "goods": [
        {
            "id":1111111,
            "name": "Phones",
            "prise": 200,
            "sale":10,
            "info":"good phone",
            "quantity":5
        },
        {
            "id":2222222,
            "name": "TV",
            "prise": 5000,
            "sale":100,
            "info":"good TV",
            "quantity":4
        },
        {
            "id":333333333,
            "name": "printer",
            "prise": 1000,
            "sale":60,
            "info":"good printer",
            "quantity":10
        },
        {
            "id":44444,
            "name": "scanner",
            "prise": 800,
            "sale":50,
            "info":"good scanner",
            "quantity":8
        }
    ]
}

